uartProject/simulation/qsim/uartProject.msim.vcd
$comment
	File created using the following command:
		vcd file uartProject.msim.vcd -direction
$end
$date
	Mon Dec 04 09:31:05 2023
$end
$version
	ModelSim Version 10.1d
$end
$timescale
	1ps
$end
$scope module uartProject_vlg_vec_tst $end
$var reg 3 ! baud_target [2:0] $end
$var reg 1 " car_sensor $end
$var reg 1 # clk $end
$var reg 1 $ global_reset $end
$var wire 1 % clk_1hz $end
$var wire 1 & clk_baud $end
$var wire 1 ' clk_baud_eighth $end
$var wire 1 ( tlc_timer [3] $end
$var wire 1 ) tlc_timer [2] $end
$var wire 1 * tlc_timer [1] $end
$var wire 1 + tlc_timer [0] $end
$var wire 1 , tx $end
$var wire 1 - sampler $end
$scope module i1 $end
$var wire 1 . gnd $end
$var wire 1 / vcc $end
$var wire 1 0 unknown $end
$var tri1 1 1 devclrn $end
$var tri1 1 2 devpor $end
$var tri1 1 3 devoe $end
$var wire 1 4 clk_1hz~output_o $end
$var wire 1 5 clk_baud~output_o $end
$var wire 1 6 clk_baud_eighth~output_o $end
$var wire 1 7 tx~output_o $end
$var wire 1 8 tlc_timer[3]~output_o $end
$var wire 1 9 tlc_timer[2]~output_o $end
$var wire 1 : tlc_timer[1]~output_o $end
$var wire 1 ; tlc_timer[0]~output_o $end
$var wire 1 < clk~input_o $end
$var wire 1 = inst11|clk_div_256|counter_reg|loop0:0:dff|jk|t_q~0_combout $end
$var wire 1 > global_reset~input_o $end
$var wire 1 ? global_reset~inputclkctrl_outclk $end
$var wire 1 @ inst11|clk_div_256|counter_reg|loop0:0:dff|jk|t_q~q $end
$var wire 1 A inst11|clk_div_256|parallel_in~2_combout $end
$var wire 1 B inst11|clk_div_256|counter_reg|loop0:2:dff|jk|t_q~q $end
$var wire 1 C inst11|clk_div_256|parallel_in~1_combout $end
$var wire 1 D inst11|clk_div_256|counter_reg|loop0:3:dff|jk|t_q~q $end
$var wire 1 E inst11|clk_div_256|loop0:4:andN_i|Equal0~0_combout $end
$var wire 1 F inst11|clk_div_256|counter_reg|loop0:4:dff|jk|t_q~q $end
$var wire 1 G inst11|clk_div_256|parallel_in~3_combout $end
$var wire 1 H inst11|clk_div_256|counter_reg|loop0:5:dff|jk|t_q~q $end
$var wire 1 I inst11|clk_div_256|loop0:6:andN_i|Equal0~0_combout $end
$var wire 1 J inst11|clk_div_256|counter_reg|loop0:6:dff|jk|t_q~q $end
$var wire 1 K inst11|clk_div_256|counter_reg|loop0:7:dff|jk|t_q~q $end
$var wire 1 L inst11|clk_div_256|parallel_in~0_combout $end
$var wire 1 M inst11|clk_div_256|counter_reg|loop0:1:dff|jk|t_q~q $end
$var wire 1 N inst11|clk_div_150|counter_reg|loop0:0:dff|jk|t_q~q $end
$var wire 1 O inst11|clk_div_150|parallel_in~0_combout $end
$var wire 1 P inst11|clk_div_150|counter_reg|loop0:1:dff|jk|t_q~q $end
$var wire 1 Q inst11|clk_div_150|parallel_in~2_combout $end
$var wire 1 R inst11|clk_div_150|counter_reg|loop0:2:dff|jk|t_q~q $end
$var wire 1 S inst11|clk_div_150|parallel_in~1_combout $end
$var wire 1 T inst11|clk_div_150|counter_reg|loop0:3:dff|jk|t_q~q $end
$var wire 1 U inst11|clk_div_150|loop0:7:andN_i|Equal0~0_combout $end
$var wire 1 V inst11|clk_div_150|parallel_in~3_combout $end
$var wire 1 W inst11|clk_div_150|counter_reg|loop0:4:dff|jk|t_q~q $end
$var wire 1 X inst11|clk_div_150|parallel_in~4_combout $end
$var wire 1 Y inst11|clk_div_150|counter_reg|loop0:5:dff|jk|t_q~q $end
$var wire 1 Z inst11|clk_div_150|parallel_in~5_combout $end
$var wire 1 [ inst11|clk_div_150|counter_reg|loop0:6:dff|jk|t_q~q $end
$var wire 1 \ inst11|clk_div_150|loop0:7:andN_i|Equal0~1_combout $end
$var wire 1 ] inst11|clk_div_150|parallel_in~6_combout $end
$var wire 1 ^ inst11|clk_div_150|counter_reg|loop0:7:dff|jk|t_q~q $end
$var wire 1 _ inst11|clk_div_150|Equal0~1_combout $end
$var wire 1 ` inst11|clk_div_150|Equal0~0_combout $end
$var wire 1 a inst11|clk_div_150|Equal0~combout $end
$var wire 1 b baud_target[2]~input_o $end
$var wire 1 c baud_target[1]~input_o $end
$var wire 1 d baud_target[0]~input_o $end
$var wire 1 e inst11|baud_mux|mux4_low|out0~1_combout $end
$var wire 1 f inst11|baud_mux|mux4_low|out0~2_combout $end
$var wire 1 g inst11|baud_mux|mux4_high|out0~1_combout $end
$var wire 1 h inst11|baud_mux|mux4_high|out0~2_combout $end
$var wire 1 i inst11|baud_mux|mux2_msb|out0~combout $end
$var wire 1 j inst11|clk_div_8|counter_reg|loop0:0:dff|jk|t_q~feeder_combout $end
$var wire 1 k inst11|clk_div_8|counter_reg|loop0:0:dff|jk|t_q~q $end
$var wire 1 l inst11|clk_div_8|parallel_in~1_combout $end
$var wire 1 m inst11|clk_div_8|counter_reg|loop0:1:dff|jk|t_q~q $end
$var wire 1 n inst11|clk_div_8|parallel_in~0_combout $end
$var wire 1 o inst11|clk_div_8|counter_reg|loop0:2:dff|jk|t_q~q $end
$var wire 1 p inst11|clk_div_8|Equal0~combout $end
$var wire 1 q inst11|clk_div_8|Equal0~clkctrl_outclk $end
$var wire 1 r inst|message_transmitter|shift_counter|counter_reg|loop0:0:dff|jk|t_q~0_combout $end
$var wire 1 s inst|message_transmitter|shift_counter|counter_reg|loop0:0:dff|jk|t_q~q $end
$var wire 1 t inst|message_transmitter|shift_counter|parallel_in~1_combout $end
$var wire 1 u inst|message_transmitter|shift_counter|counter_reg|loop0:2:dff|jk|t_q~0_combout $end
$var wire 1 v inst|message_transmitter|shift_counter|counter_reg|loop0:2:dff|jk|t_q~q $end
$var wire 1 w inst|message_transmitter|tx_state|jk|t_q~0_combout $end
$var wire 1 x inst|message_transmitter|shift_counter|counter_reg|loop0:3:dff|jk|t_q~0_combout $end
$var wire 1 y inst|message_transmitter|shift_counter|counter_reg|loop0:1:dff|jk|t_q~0_combout $end
$var wire 1 z inst|message_transmitter|shift_counter|counter_reg|loop0:1:dff|jk|t_q~q $end
$var wire 1 { inst|message_transmitter|shift_counter|parallel_in~0_combout $end
$var wire 1 | inst|message_transmitter|shift_counter|counter_reg|loop0:3:dff|jk|t_q~1_combout $end
$var wire 1 } inst|message_transmitter|shift_counter|counter_reg|loop0:3:dff|jk|t_q~q $end
$var wire 1 ~ inst|message_buffer|ascii_reg|ascii_reg0|loop0:2:dff|jk|t_q~0_combout $end
$var wire 1 !! inst11|clk_div_150|Equal0~clkctrl_outclk $end
$var wire 1 "! car_sensor~input_o $end
$var wire 1 #! inst|state_generator|timer_cntr|parallel_in[3]~0_combout $end
$var wire 1 $! inst|state_generator|timer_cntr|counter_reg|loop0:1:dff|jk|t_q~2_combout $end
$var wire 1 %! inst|state_generator|timer_cntr|counter_reg|loop0:1:dff|jk|t_q~q $end
$var wire 1 &! inst|state_generator|timer_cntr|en_temp~0_combout $end
$var wire 1 '! inst|state_generator|timer_cntr|counter_reg|loop0:0:dff|jk|t_q~0_combout $end
$var wire 1 (! inst|state_generator|timer_cntr|counter_reg|loop0:0:dff|jk|t_q~q $end
$var wire 1 )! inst|state_generator|timer_cntr|counter_reg|loop0:3:dff|jk|t_q~3_combout $end
$var wire 1 *! inst|state_generator|timer_cntr|counter_reg|loop0:2:dff|jk|t_q~0_combout $end
$var wire 1 +! inst|state_generator|timer_cntr|counter_reg|loop0:2:dff|jk|t_q~q $end
$var wire 1 ,! inst|state_generator|timer_cntr|parallel_in~1_combout $end
$var wire 1 -! inst|state_generator|timer_cntr|counter_reg|loop0:3:dff|jk|t_q~2_combout $end
$var wire 1 .! inst|state_generator|timer_cntr|counter_reg|loop0:3:dff|jk|t_q~4_combout $end
$var wire 1 /! inst|state_generator|timer_cntr|counter_reg|loop0:3:dff|jk|t_q~q $end
$var wire 1 0! inst|state_generator|timer_cntr|en_temp~1_combout $end
$var wire 1 1! inst|state_generator|state_cntr|counter_reg|loop0:0:dff|jk|t_q~0_combout $end
$var wire 1 2! inst|state_generator|state_cntr|counter_reg|loop0:0:dff|jk|t_q~q $end
$var wire 1 3! inst|state_generator|timer_cntr|parallel_in[3]~2_combout $end
$var wire 1 4! inst|state_generator|state_cntr|parallel_in~2_combout $end
$var wire 1 5! inst|state_generator|state_cntr|counter_reg|loop0:2:dff|jk|t_q~q $end
$var wire 1 6! inst|state_generator|state_cntr|counter_reg|loop0:3:dff|jk|t_q~q $end
$var wire 1 7! inst|state_generator|state_cntr_clear~0_combout $end
$var wire 1 8! inst|state_generator|state_cntr|counter_reg|loop0:1:dff|jk|t_q~0_combout $end
$var wire 1 9! inst|state_generator|state_cntr|counter_reg|loop0:1:dff|jk|t_q~q $end
$var wire 1 :! inst|message_buffer|ascii_reg|shift_load_high_mux|out0~13_combout $end
$var wire 1 ;! inst|state_change_trim|comb~1_combout $end
$var wire 1 <! inst|state_change_trim|d0_ff|jk|t_q~q $end
$var wire 1 =! inst|state_change_trim|comb~0_combout $end
$var wire 1 >! inst|state_change_trim|comb~2_combout $end
$var wire 1 ?! inst|state_change_trim|d1_ff|jk|t_q~q $end
$var wire 1 @! inst|message_buffer|ascii_reg_en~0_combout $end
$var wire 1 A! inst|message_buffer|ascii_reg_en~combout $end
$var wire 1 B! inst|message_buffer|ascii_reg|loop0:4:ascii_reg|loop0:4:dff|jk|t_q~q $end
$var wire 1 C! inst|message_buffer|ascii_reg|loop0:3:ascii_reg|loop0:4:dff|jk|t_q~q $end
$var wire 1 D! inst|message_buffer|ascii_reg|loop0:2:ascii_reg|loop0:4:dff|jk|t_q~q $end
$var wire 1 E! inst|message_buffer|ascii_reg|shift_load_high_mux|out0[11]~4_combout $end
$var wire 1 F! inst|message_buffer|ascii_reg|loop0:1:ascii_reg|loop0:4:dff|jk|t_q~q $end
$var wire 1 G! inst|message_transmitter|tdr_to_full~combout $end
$var wire 1 H! inst|message_buffer|ascii_reg|ascii_reg0|loop0:4:dff|jk|t_q~0_combout $end
$var wire 1 I! inst|message_buffer|ascii_reg|ascii_reg0|loop0:4:dff|jk|t_q~q $end
$var wire 1 J! inst|message_buffer|ascii_reg|shift_load_high_mux|out0~8_combout $end
$var wire 1 K! inst|message_buffer|ascii_reg|loop0:3:ascii_reg|loop0:5:dff|jk|t_q~q $end
$var wire 1 L! inst|message_buffer|ascii_reg|shift_load_high_mux|out0~7_combout $end
$var wire 1 M! inst|message_buffer|ascii_reg|loop0:2:ascii_reg|loop0:5:dff|jk|t_q~q $end
$var wire 1 N! inst|message_buffer|ascii_reg|loop0:1:ascii_reg|loop0:5:dff|jk|t_q~q $end
$var wire 1 O! inst|message_buffer|ascii_reg|ascii_reg0|loop0:5:dff|jk|t_q~0_combout $end
$var wire 1 P! inst|message_buffer|ascii_reg|ascii_reg0|loop0:5:dff|jk|t_q~q $end
$var wire 1 Q! inst|message_buffer|Equal0~4_combout $end
$var wire 1 R! inst|message_buffer|ascii_reg|loop0:5:ascii_reg|loop0:6:dff|jk|t_q~q $end
$var wire 1 S! inst|message_buffer|ascii_reg|loop0:4:ascii_reg|loop0:6:dff|jk|t_q~q $end
$var wire 1 T! inst|message_buffer|ascii_reg|loop0:3:ascii_reg|loop0:6:dff|jk|t_q~q $end
$var wire 1 U! inst|message_buffer|ascii_reg|loop0:2:ascii_reg|loop0:6:dff|jk|t_q~q $end
$var wire 1 V! inst|message_buffer|ascii_reg|loop0:1:ascii_reg|loop0:6:dff|jk|t_q~q $end
$var wire 1 W! inst|message_buffer|ascii_reg|ascii_reg0|loop0:6:dff|jk|t_q~0_combout $end
$var wire 1 X! inst|message_buffer|ascii_reg|ascii_reg0|loop0:6:dff|jk|t_q~q $end
$var wire 1 Y! inst|message_buffer|Equal0~3_combout $end
$var wire 1 Z! inst|message_buffer|ascii_reg|shift_load_high_mux|out0[30]~11_combout $end
$var wire 1 [! inst|message_buffer|ascii_reg|loop0:4:ascii_reg|loop0:2:dff|jk|t_q~q $end
$var wire 1 \! inst|message_buffer|ascii_reg|loop0:3:ascii_reg|loop0:2:dff|jk|t_q~q $end
$var wire 1 ]! inst|message_buffer|ascii_reg|shift_load_high_mux|out0~5_combout $end
$var wire 1 ^! inst|message_buffer|ascii_reg|loop0:2:ascii_reg|loop0:2:dff|jk|t_q~q $end
$var wire 1 _! inst|message_buffer|ascii_reg|shift_load_high_mux|out0[9]~2_combout $end
$var wire 1 `! inst|message_buffer|ascii_reg|loop0:1:ascii_reg|loop0:2:dff|jk|t_q~q $end
$var wire 1 a! inst|message_buffer|ascii_reg|ascii_reg0|loop0:2:dff|jk|t_q~1_combout $end
$var wire 1 b! inst|message_buffer|ascii_reg|ascii_reg0|loop0:2:dff|jk|t_q~q $end
$var wire 1 c! inst|message_buffer|ascii_reg|shift_load_high_mux|out0~10_combout $end
$var wire 1 d! inst|message_buffer|ascii_reg|loop0:4:ascii_reg|loop0:1:dff|jk|t_q~q $end
$var wire 1 e! inst|message_buffer|ascii_reg|loop0:3:ascii_reg|loop0:1:dff|jk|t_q~q $end
$var wire 1 f! inst|message_buffer|ascii_reg|loop0:2:ascii_reg|loop0:1:dff|jk|t_q~q $end
$var wire 1 g! inst|message_buffer|ascii_reg|shift_load_high_mux|out0[8]~1_combout $end
$var wire 1 h! inst|message_buffer|ascii_reg|loop0:1:ascii_reg|loop0:1:dff|jk|t_q~q $end
$var wire 1 i! inst|message_buffer|ascii_reg|ascii_reg0|loop0:1:dff|jk|t_q~0_combout $end
$var wire 1 j! inst|message_buffer|ascii_reg|ascii_reg0|loop0:1:dff|jk|t_q~q $end
$var wire 1 k! inst|message_buffer|ascii_reg|shift_load_high_mux|out0[28]~9_combout $end
$var wire 1 l! inst|message_buffer|ascii_reg|loop0:4:ascii_reg|loop0:0:dff|jk|t_q~q $end
$var wire 1 m! inst|message_buffer|ascii_reg|loop0:3:ascii_reg|loop0:0:dff|jk|t_q~q $end
$var wire 1 n! inst|message_buffer|ascii_reg|loop0:2:ascii_reg|loop0:0:dff|jk|t_q~q $end
$var wire 1 o! inst|message_buffer|ascii_reg|shift_load_high_mux|out0[7]~0_combout $end
$var wire 1 p! inst|message_buffer|ascii_reg|loop0:1:ascii_reg|loop0:0:dff|jk|t_q~q $end
$var wire 1 q! inst|message_buffer|ascii_reg|ascii_reg0|loop0:0:dff|jk|t_q~0_combout $end
$var wire 1 r! inst|message_buffer|ascii_reg|ascii_reg0|loop0:0:dff|jk|t_q~1_combout $end
$var wire 1 s! inst|message_buffer|ascii_reg|ascii_reg0|loop0:0:dff|jk|t_q~q $end
$var wire 1 t! inst|message_buffer|ascii_reg|shift_load_high_mux|out0[31]~12_combout $end
$var wire 1 u! inst|message_buffer|ascii_reg|loop0:4:ascii_reg|loop0:3:dff|jk|t_q~q $end
$var wire 1 v! inst|message_buffer|ascii_reg|loop0:3:ascii_reg|loop0:3:dff|jk|t_q~q $end
$var wire 1 w! inst|message_buffer|ascii_reg|shift_load_high_mux|out0~6_combout $end
$var wire 1 x! inst|message_buffer|ascii_reg|loop0:2:ascii_reg|loop0:3:dff|jk|t_q~q $end
$var wire 1 y! inst|message_buffer|ascii_reg|shift_load_high_mux|out0[10]~3_combout $end
$var wire 1 z! inst|message_buffer|ascii_reg|loop0:1:ascii_reg|loop0:3:dff|jk|t_q~q $end
$var wire 1 {! inst|message_buffer|ascii_reg|ascii_reg0|loop0:3:dff|jk|t_q~0_combout $end
$var wire 1 |! inst|message_buffer|ascii_reg|ascii_reg0|loop0:3:dff|jk|t_q~1_combout $end
$var wire 1 }! inst|message_buffer|ascii_reg|ascii_reg0|loop0:3:dff|jk|t_q~q $end
$var wire 1 ~! inst|message_buffer|Equal0~2_combout $end
$var wire 1 !" inst|message_transmitter|tdr_empty_temp_ff|jk|t_q~0_combout $end
$var wire 1 "" inst|message_transmitter|tdr_empty_temp_ff|jk|t_q~q $end
$var wire 1 #" inst|message_transmitter|tx_state|jk|t_q~1_combout $end
$var wire 1 $" inst|message_transmitter|tx_state|jk|t_q~q $end
$var wire 1 %" inst|message_transmitter|tdr_reg|loop0:1:dffI|jk|t_q~0_combout $end
$var wire 1 &" inst|message_transmitter|tdr_reg|loop0:1:dffI|jk|t_q~q $end
$var wire 1 '" inst|message_transmitter|tdr_reg|loop0:5:dffI|jk|t_q~0_combout $end
$var wire 1 (" inst|message_transmitter|tdr_reg|loop0:5:dffI|jk|t_q~q $end
$var wire 1 )" inst|message_transmitter|tdr_reg|loop0:6:dffI|jk|t_q~0_combout $end
$var wire 1 *" inst|message_transmitter|tdr_reg|loop0:6:dffI|jk|t_q~q $end
$var wire 1 +" inst|message_transmitter|tdr_reg|loop0:4:dffI|jk|t_q~0_combout $end
$var wire 1 ," inst|message_transmitter|tdr_reg|loop0:4:dffI|jk|t_q~q $end
$var wire 1 -" inst|message_transmitter|p|parity_odd~1_combout $end
$var wire 1 ." inst|message_transmitter|tdr_reg|loop0:0:dffI|jk|t_q~0_combout $end
$var wire 1 /" inst|message_transmitter|tdr_reg|loop0:0:dffI|jk|t_q~q $end
$var wire 1 0" inst|message_transmitter|tdr_reg|loop0:2:dffI|jk|t_q~0_combout $end
$var wire 1 1" inst|message_transmitter|tdr_reg|loop0:2:dffI|jk|t_q~q $end
$var wire 1 2" inst|message_transmitter|tdr_reg|loop0:3:dffI|jk|t_q~0_combout $end
$var wire 1 3" inst|message_transmitter|tdr_reg|loop0:3:dffI|jk|t_q~q $end
$var wire 1 4" inst|message_transmitter|p|parity_odd~0_combout $end
$var wire 1 5" inst|message_transmitter|tsr_reg|loop0:8:mux_inI|out0~combout $end
$var wire 1 6" inst|message_transmitter|tsr_enable~combout $end
$var wire 1 7" inst|message_transmitter|tsr_reg|loop0:8:dffI|jk|t_q~q $end
$var wire 1 8" inst|message_transmitter|tsr_reg|loop0:7:mux_inI|out0~0_combout $end
$var wire 1 9" inst|message_transmitter|tsr_reg|loop0:7:dffI|jk|t_q~q $end
$var wire 1 :" inst|message_transmitter|tsr_reg|loop0:6:mux_inI|out0~0_combout $end
$var wire 1 ;" inst|message_transmitter|tsr_reg|loop0:6:dffI|jk|t_q~q $end
$var wire 1 <" inst|message_transmitter|tsr_reg|loop0:5:mux_inI|out0~0_combout $end
$var wire 1 =" inst|message_transmitter|tsr_reg|loop0:5:dffI|jk|t_q~q $end
$var wire 1 >" inst|message_transmitter|tsr_reg|loop0:4:mux_inI|out0~0_combout $end
$var wire 1 ?" inst|message_transmitter|tsr_reg|loop0:4:dffI|jk|t_q~q $end
$var wire 1 @" inst|message_transmitter|tsr_reg|loop0:3:mux_inI|out0~0_combout $end
$var wire 1 A" inst|message_transmitter|tsr_reg|loop0:3:dffI|jk|t_q~q $end
$var wire 1 B" inst|message_transmitter|tsr_reg|loop0:2:mux_inI|out0~0_combout $end
$var wire 1 C" inst|message_transmitter|tsr_reg|loop0:2:dffI|jk|t_q~q $end
$var wire 1 D" inst|message_transmitter|tsr_reg|loop0:1:mux_inI|out0~0_combout $end
$var wire 1 E" inst|message_transmitter|tsr_reg|loop0:1:dffI|jk|t_q~q $end
$var wire 1 F" inst|message_transmitter|tsr_reg|loop0:0:mux_inI|out0~0_combout $end
$var wire 1 G" inst|message_transmitter|tsr_reg|loop0:0:dffI|jk|t_q~q $end
$var wire 1 H" inst11|clk_div_256|parallel_in [7] $end
$var wire 1 I" inst11|clk_div_256|parallel_in [6] $end
$var wire 1 J" inst11|clk_div_256|parallel_in [5] $end
$var wire 1 K" inst11|clk_div_256|parallel_in [4] $end
$var wire 1 L" inst11|clk_div_256|parallel_in [3] $end
$var wire 1 M" inst11|clk_div_256|parallel_in [2] $end
$var wire 1 N" inst11|clk_div_256|parallel_in [1] $end
$var wire 1 O" inst11|clk_div_256|parallel_in [0] $end
$var wire 1 P" inst11|clk_div_8|parallel_in [2] $end
$var wire 1 Q" inst11|clk_div_8|parallel_in [1] $end
$var wire 1 R" inst11|clk_div_8|parallel_in [0] $end
$var wire 1 S" inst|state_generator|state_cntr|parallel_in [3] $end
$var wire 1 T" inst|state_generator|state_cntr|parallel_in [2] $end
$var wire 1 U" inst|state_generator|state_cntr|parallel_in [1] $end
$var wire 1 V" inst|state_generator|state_cntr|parallel_in [0] $end
$var wire 1 W" inst|message_buffer|ascii_reg|shift_load_high_mux|out0 [34] $end
$var wire 1 X" inst|message_buffer|ascii_reg|shift_load_high_mux|out0 [33] $end
$var wire 1 Y" inst|message_buffer|ascii_reg|shift_load_high_mux|out0 [32] $end
$var wire 1 Z" inst|message_buffer|ascii_reg|shift_load_high_mux|out0 [31] $end
$var wire 1 [" inst|message_buffer|ascii_reg|shift_load_high_mux|out0 [30] $end
$var wire 1 \" inst|message_buffer|ascii_reg|shift_load_high_mux|out0 [29] $end
$var wire 1 ]" inst|message_buffer|ascii_reg|shift_load_high_mux|out0 [28] $end
$var wire 1 ^" inst|message_buffer|ascii_reg|shift_load_high_mux|out0 [27] $end
$var wire 1 _" inst|message_buffer|ascii_reg|shift_load_high_mux|out0 [26] $end
$var wire 1 `" inst|message_buffer|ascii_reg|shift_load_high_mux|out0 [25] $end
$var wire 1 a" inst|message_buffer|ascii_reg|shift_load_high_mux|out0 [24] $end
$var wire 1 b" inst|message_buffer|ascii_reg|shift_load_high_mux|out0 [23] $end
$var wire 1 c" inst|message_buffer|ascii_reg|shift_load_high_mux|out0 [22] $end
$var wire 1 d" inst|message_buffer|ascii_reg|shift_load_high_mux|out0 [21] $end
$var wire 1 e" inst|message_buffer|ascii_reg|shift_load_high_mux|out0 [20] $end
$var wire 1 f" inst|message_buffer|ascii_reg|shift_load_high_mux|out0 [19] $end
$var wire 1 g" inst|message_buffer|ascii_reg|shift_load_high_mux|out0 [18] $end
$var wire 1 h" inst|message_buffer|ascii_reg|shift_load_high_mux|out0 [17] $end
$var wire 1 i" inst|message_buffer|ascii_reg|shift_load_high_mux|out0 [16] $end
$var wire 1 j" inst|message_buffer|ascii_reg|shift_load_high_mux|out0 [15] $end
$var wire 1 k" inst|message_buffer|ascii_reg|shift_load_high_mux|out0 [14] $end
$var wire 1 l" inst|message_buffer|ascii_reg|shift_load_high_mux|out0 [13] $end
$var wire 1 m" inst|message_buffer|ascii_reg|shift_load_high_mux|out0 [12] $end
$var wire 1 n" inst|message_buffer|ascii_reg|shift_load_high_mux|out0 [11] $end
$var wire 1 o" inst|message_buffer|ascii_reg|shift_load_high_mux|out0 [10] $end
$var wire 1 p" inst|message_buffer|ascii_reg|shift_load_high_mux|out0 [9] $end
$var wire 1 q" inst|message_buffer|ascii_reg|shift_load_high_mux|out0 [8] $end
$var wire 1 r" inst|message_buffer|ascii_reg|shift_load_high_mux|out0 [7] $end
$var wire 1 s" inst|message_buffer|ascii_reg|shift_load_high_mux|out0 [6] $end
$var wire 1 t" inst|message_buffer|ascii_reg|shift_load_high_mux|out0 [5] $end
$var wire 1 u" inst|message_buffer|ascii_reg|shift_load_high_mux|out0 [4] $end
$var wire 1 v" inst|message_buffer|ascii_reg|shift_load_high_mux|out0 [3] $end
$var wire 1 w" inst|message_buffer|ascii_reg|shift_load_high_mux|out0 [2] $end
$var wire 1 x" inst|message_buffer|ascii_reg|shift_load_high_mux|out0 [1] $end
$var wire 1 y" inst|message_buffer|ascii_reg|shift_load_high_mux|out0 [0] $end
$var wire 1 z" inst11|clk_div_150|parallel_in [7] $end
$var wire 1 {" inst11|clk_div_150|parallel_in [6] $end
$var wire 1 |" inst11|clk_div_150|parallel_in [5] $end
$var wire 1 }" inst11|clk_div_150|parallel_in [4] $end
$var wire 1 ~" inst11|clk_div_150|parallel_in [3] $end
$var wire 1 !# inst11|clk_div_150|parallel_in [2] $end
$var wire 1 "# inst11|clk_div_150|parallel_in [1] $end
$var wire 1 ## inst11|clk_div_150|parallel_in [0] $end
$upscope $end
$upscope $end
$enddefinitions $end
#0
$dumpvars
b0 !
0"
0#
1$
0%
0&
0'
0+
0*
0)
0(
1,
x-
0.
1/
x0
11
12
13
04
05
06
17
08
09
0:
0;
0<
1=
1>
1?
0@
0A
0B
0C
0D
0E
0F
0G
0H
0I
0J
0K
0L
0M
0N
0O
0P
0Q
0R
0S
0T
0U
0V
0W
0X
0Y
0Z
0[
0\
0]
0^
0_
0`
0a
0b
0c
0d
0e
0f
0g
0h
0i
1j
0k
0l
0m
0n
0o
0p
0q
0r
0s
0t
0u
0v
0w
0x
0y
0z
0{
0|
0}
0~
0!!
0"!
1#!
0$!
0%!
1&!
1'!
0(!
1)!
0*!
0+!
0,!
0-!
0.!
0/!
00!
01!
02!
13!
04!
05!
06!
07!
08!
09!
0:!
0;!
0<!
1=!
0>!
0?!
0@!
0A!
0B!
0C!
0D!
1E!
0F!
0G!
0H!
0I!
0J!
0K!
0L!
0M!
0N!
0O!
0P!
1Q!
0R!
0S!
0T!
0U!
0V!
0W!
0X!
1Y!
1Z!
0[!
0\!
0]!
0^!
0_!
0`!
0a!
0b!
1c!
0d!
0e!
0f!
1g!
0h!
0i!
0j!
1k!
0l!
0m!
0n!
0o!
0p!
0q!
0r!
0s!
0t!
0u!
0v!
0w!
0x!
0y!
0z!
0{!
0|!
0}!
1~!
0!"
0""
0#"
0$"
1%"
0&"
1'"
0("
1)"
0*"
1+"
0,"
1-"
1."
0/"
10"
01"
12"
03"
04"
05"
06"
07"
08"
09"
0:"
0;"
0<"
0="
0>"
0?"
0@"
0A"
0B"
0C"
0D"
0E"
1F"
0G"
zO"
0N"
0M"
0L"
0K"
0J"
0I"
0H"
1R"
zQ"
zP"
zV"
zU"
0T"
0S"
zy"
zx"
zw"
zv"
zu"
zt"
zs"
zr"
zq"
zp"
zo"
zn"
1m"
1l"
1k"
1j"
zi"
zh"
1g"
zf"
1e"
1d"
1c"
1b"
1a"
1`"
z_"
1^"
z]"
z\"
z["
zZ"
zY"
zX"
1W"
1##
z"#
z!#
z~"
z}"
z|"
z{"
zz"
$end
#1250
1#
1<
0-
#2500
0#
0<
1-
#3750
1#
1<
0-
#5000
0#
0<
1-
#6250
1#
1<
0-
#7500
0#
0<
1-
#8750
1#
1<
0-
#10000
0#
0<
1-
#11250
1#
1<
0-
#12500
0#
0<
1-
#13750
1#
1<
0-
#15000
0#
0<
1-
#16250
1#
1<
0-
#17500
0#
0<
1-
#18750
1#
1<
0-
#20000
0#
0<
1-
#21250
1#
1<
0-
#22500
0#
0<
1-
#23750
1#
1<
0-
#25000
0#
0<
1-
#26250
1#
1<
0-
#27500
0#
0<
1-
#28750
1#
1<
0-
#30000
0#
0<
1-
#31250
1#
1<
0-
#32500
0#
0<
1-
#33750
1#
1<
0-
#35000
0#
0<
1-
#36250
1#
1<
0-
#37500
0#
0<
1-
#38750
1#
1<
0-
#40000
0#
0<
1-
#41250
1#
1<
0-
#42500
0#
0<
1-
#43750
1#
1<
0-
#45000
0#
0<
1-
#46250
1#
1<
0-
#47500
0#
0<
1-
#48750
1#
1<
0-
#50000
0#
0<
1-
#51250
1#
1<
0-
#52500
0#
0<
1-
#53750
1#
1<
0-
#55000
0#
0<
1-
#56250
1#
1<
0-
#57500
0#
0<
1-
#58750
1#
1<
0-
#60000
0#
0<
1-
#61250
1#
1<
0-
#62500
0#
0<
1-
#63750
1#
1<
0-
#65000
0#
0<
1-
#66250
1#
1<
0-
#67500
0#
0<
1-
#68750
1#
1<
0-
#70000
0#
0<
1-
#71250
1#
1<
0-
#72500
0#
0<
1-
#73750
1#
1<
0-
#75000
0#
0<
1-
#76250
1#
1<
0-
#77500
0#
0<
1-
#78750
1#
1<
0-
#80000
0#
0<
1-
#81250
1#
1<
0-
#82500
0#
0<
1-
#83750
1#
1<
0-
#85000
0#
0<
1-
#86250
1#
1<
0-
#87500
0#
0<
1-
#88750
1#
1<
0-
#90000
0#
0<
1-
#91250
1#
1<
0-
#92500
0#
0<
1-
#93750
1#
1<
0-
#95000
0#
0<
1-
#96250
1#
1<
0-
#97500
0#
0<
1-
#98750
1#
1<
0-
#100000
0#
0<
1-
#101250
1#
1<
0-
#102500
0#
0<
1-
#103750
1#
1<
0-
#105000
0#
0<
1-
#106250
1#
1<
0-
#107500
0#
0<
1-
#108750
1#
1<
0-
#110000
0#
0<
1-
#111250
1#
1<
0-
#112500
0#
0<
1-
#113750
1#
1<
0-
#115000
0#
0<
1-
#116250
1#
1<
0-
#117500
0#
0<
1-
#118750
1#
1<
0-
#120000
0#
0<
1-
#121250
1#
1<
0-
#122500
0#
0<
1-
#123750
1#
1<
0-
#125000
0#
0<
1-
#126250
1#
1<
0-
#127500
0#
0<
1-
#128750
1#
1<
0-
#130000
0#
0<
1-
#131250
1#
1<
0-
#132500
0#
0<
1-
#133750
1#
1<
0-
#135000
0#
0<
1-
#136250
1#
1<
0-
#137500
0#
0<
1-
#138750
1#
1<
0-
#140000
0#
0<
1-
#141250
1#
1<
0-
#142500
0#
0<
1-
#143750
1#
1<
0-
#145000
0#
0<
1-
#146250
1#
1<
0-
#147500
0#
0<
1-
#148750
1#
1<
0-
#150000
0#
0<
1-
#151250
1#
1<
0-
#152500
0#
0<
1-
#153750
1#
1<
0-
#155000
0#
0<
1-
#156250
1#
1<
0-
#157500
0#
0<
1-
#158750
1#
1<
0-
#160000
0#
0<
1-
#161250
1#
1<
0-
#162500
0#
0<
1-
#163750
1#
1<
0-
#165000
0#
0<
1-
#166250
1#
1<
0-
#167500
0#
0<
1-
#168750
1#
1<
0-
#170000
0#
0<
1-
#171250
1#
1<
0-
#172500
0#
0<
1-
#173750
1#
1<
0-
#175000
0#
0<
1-
#176250
1#
1<
0-
#177500
0#
0<
1-
#178750
1#
1<
0-
#180000
0#
0<
1-
#181250
1#
1<
0-
#182500
0#
0<
1-
#183750
1#
1<
0-
#185000
0#
0<
1-
#186250
1#
1<
0-
